{
    "0" : {
        "postType" : "contentOnlyPost",
        "postTypeTitle" : "Message",
        "postTypeImage" : "captain"
    },
    "1" : {
        "postType" : "pictureOrVideoOnlyPost",
        "postTypeTitle" : "Camera Asset",
        "postTypeImage" : "captain"
    },
    "2" : {
        "postType" : "contentPlusPictureOrVideoPost",
        "postTypeTitle" : "Message with Photo/Video",
        "postTypeImage" : "captain"
    },
    "3" : {
        "postType" : "shoutoutPost",
        "postTypeTitle" : "Shoutout",
        "postTypeImage" : "captain"
    }
}